


-180 0.43191
-162 0.2886392
-144 0.138152
-126 0.05327104
-108 0.2106664
-90 0.3641445
-72 0.5076315
-54 0.6385525
-36 0.753305
-18 0.8490601
0 0.9262339
18 0.9795822
36 1.008515
54 1.011808
72 0.9910686
90 0.946333
108 0.8777068
126 0.7874789
144 0.6836633
162 0.5643656
180 0.43191
