


-180 0.7219158
-162 0.6042434
-144 0.4730609
-126 0.3299577
-108 0.1788356
-90 0.02418816
-72 0.1788341
-54 0.3297856
-36 0.4722165
-18 0.6060698
0 0.7219158
18 0.8202871
36 0.8995506
54 0.9563594
72 0.9897635
90 0.9982719
108 0.9895373
126 0.9562977
144 0.8991113
162 0.8216327
180 0.7219158
