


-180 6.678729e-13
-162 0.1598989
-144 0.3159346
-126 0.4641826
-108 0.6009813
-90 0.7227739
-72 0.8260888
-54 0.9082343
-36 0.969943
-18 1.007313
0 1.021287
18 1.009558
36 0.9723515
54 0.9110118
72 0.8271766
90 0.7227686
108 0.6001871
126 0.46277
144 0.3151507
162 0.1595441
180 6.678729e-13
