
freq (Hz)         db20(getData("/o" ?resultsDir "/home1/home2/rfvlsi08/simulation/chopper_amplifier_v0.1_tb/spectre/schematic" ?result "pac")) (dB)

harmonic = -7                

700000            -85.7161          
700000            -85.7162          
700000            -85.7165          
700000            -85.7176          
700000            -85.7203          
700000            -85.7264          
700000            -85.74            
700000            -85.7692          
700000            -85.8314          
700000            -85.9605          
700000            -86.2209          
699999            -86.7217          
699999            -87.6127          
699999            -89.0307          
699998            -91.0091          
699997            -93.4468          
699996            -96.1778          
699995            -99.0501          
699992            -101.949          
699989            -104.781          
699984            -107.457          
699977            -109.877          
699967            -111.937          
699952            -113.567          
699931            -114.759          
699900            -115.575          
699855            -116.108          
699791            -116.448          
699698            -116.664          
699563            -116.801          
699369            -116.887          
699088            -116.941          
698682            -116.971          
698095            -116.984          
697246            -116.982          
696019            -116.965          
694246            -116.93           
691682            -116.873          
687977            -116.784          
682622            -116.651          
674881            -116.452          
663692            -116.155          
647519            -115.714          
624142            -115.063          
590352            -114.103          
541511            -112.654          
470913            -110.351          
368869            -106.349          
221370            -98.1208          
8169.03           -61.6832          
300000            -102.494          

freq (Hz)         db20(getData("/o" ?resultsDir "/home1/home2/rfvlsi08/simulation/chopper_amplifier_v0.1_tb/spectre/schematic" ?result "pac")) (dB)

harmonic = -6                

600000            -61.539           
600000            -61.542           
600000            -61.5465          
600000            -61.5535          
600000            -61.5648          
600000            -61.5833          
600000            -61.6149          
600000            -61.6702          
600000            -61.7699          
600000            -61.9535          
600000            -62.2928          
599999            -62.9079          
599999            -63.9644          
599999            -65.6223          
599998            -67.9476          
599997            -70.8834          
599996            -74.3131          
599995            -78.093           
599992            -81.8724          
599989            -84.6325          
599984            -85.3285          
599977            -84.7318          
599967            -83.9354          
599952            -83.2877          
599931            -82.8172          
599900            -82.4866          
599855            -82.2566          
599791            -82.0966          
599698            -81.9847          
599563            -81.9055          
599369            -81.8479          
599088            -81.804           
598682            -81.7677          
598095            -81.7341          
597246            -81.6985          
596019            -81.656           
594246            -81.6009          
591682            -81.5255          
587977            -81.4196          
582622            -81.2689          
574881            -81.0529          
563692            -80.742           
547519            -80.291           
524142            -79.6239          
490352            -78.6018          
441511            -76.9611          
370913            -74.1719          
268869            -68.9632          
121370            -56.8274          
91831             -53.03            
400000            -75.4421          

freq (Hz)         db20(getData("/o" ?resultsDir "/home1/home2/rfvlsi08/simulation/chopper_amplifier_v0.1_tb/spectre/schematic" ?result "pac")) (dB)

harmonic = -5                

500000            -85.5565          
500000            -85.5563          
500000            -85.5562          
500000            -85.5566          
500000            -85.5583          
500000            -85.5629          
500000            -85.5743          
500000            -85.6005          
500000            -85.6581          
500000            -85.7806          
500000            -86.0314          
499999            -86.5178          
499999            -87.3873          
499999            -88.773           
499998            -90.7018          
499997            -93.0627          
499996            -95.6733          
499995            -98.3558          
499992            -100.959          
499989            -103.347          
499984            -105.401          
499977            -107.039          
499967            -108.248          
499952            -109.081          
499931            -109.631          
499900            -109.984          
499855            -110.21           
499791            -110.354          
499698            -110.447          
499563            -110.506          
499369            -110.542          
499088            -110.561          
498682            -110.567          
498095            -110.561          
497246            -110.541          
496019            -110.507          
494246            -110.451          
491682            -110.367          
487977            -110.243          
482622            -110.058          
474881            -109.786          
463692            -109.381          
447519            -108.777          
424142            -107.868          
390352            -106.476          
341511            -104.264          
270913            -100.489          
168869            -93.0737          
21369.9           -69.3233          
191831            -95.1009          
500000            -103.978          

freq (Hz)         db20(getData("/o" ?resultsDir "/home1/home2/rfvlsi08/simulation/chopper_amplifier_v0.1_tb/spectre/schematic" ?result "pac")) (dB)

harmonic = -4                

400000            -50.7408          
400000            -50.7408          
400000            -50.7411          
400000            -50.742           
400000            -50.7443          
400000            -50.75            
400000            -50.763           
400000            -50.7913          
400000            -50.8521          
400000            -50.9791          
400000            -51.2361          
399999            -51.7315          
399999            -52.6134          
399999            -54.0159          
399998            -55.9669          
399997            -58.3551          
399996            -60.9962          
399995            -63.705           
399992            -66.315           
399989            -68.6679          
399984            -70.6228          
399977            -72.0983          
399967            -73.1098          
399952            -73.752           
399931            -74.1408          
399900            -74.3719          
399855            -74.5091          
399791            -74.591           
399698            -74.6397          
399563            -74.6675          
399369            -74.681           
399088            -74.6834          
398682            -74.6757          
398095            -74.6573          
397246            -74.6257          
396019            -74.5766          
394246            -74.5033          
391682            -74.3955          
387977            -74.238           
382622            -74.0084          
374881            -73.6735          
363692            -73.1824          
347519            -72.4547          
324142            -71.3516          
290352            -69.6128          
241511            -66.7048          
170913            -61.3542          
68868.9           -49.1395          
78630.1           -50.6785          
291831            -69.7088          
600000            -81.1464          

freq (Hz)         db20(getData("/o" ?resultsDir "/home1/home2/rfvlsi08/simulation/chopper_amplifier_v0.1_tb/spectre/schematic" ?result "pac")) (dB)

harmonic = -3                

300000            -88.9324          
300000            -88.9288          
300000            -88.924           
300000            -88.9174          
300000            -88.909           
300000            -88.899           
300000            -88.8892          
300000            -88.8845          
300000            -88.8968          
300000            -88.9529          
300000            -89.1056          
299999            -89.4468          
299999            -90.1003          
299999            -91.1648          
299998            -92.6207          
299997            -94.3014          
299996            -95.9765          
299995            -97.4557          
299992            -98.6412          
299989            -99.5235          
299984            -100.148          
299977            -100.577          
299967            -100.867          
299952            -101.063          
299931            -101.195          
299900            -101.284          
299855            -101.343          
299791            -101.382          
299698            -101.406          
299563            -101.418          
299369            -101.422          
299088            -101.416          
298682            -101.4            
298095            -101.373          
297246            -101.329          
296019            -101.264          
294246            -101.168          
291682            -101.026          
287977            -100.819          
282622            -100.513          
274881            -100.062          
263692            -99.3866          
247519            -98.3627          
224142            -96.7729          
190352            -94.204           
141511            -89.741           
70913.2           -80.6601          
31131.1           -72.0826          
178630            -93.2495          
391831            -105.869          
700000            -104.049          

freq (Hz)         db20(getData("/o" ?resultsDir "/home1/home2/rfvlsi08/simulation/chopper_amplifier_v0.1_tb/spectre/schematic" ?result "pac")) (dB)

harmonic = -2                

200000            -35.7865          
200000            -35.7866          
200000            -35.787           
200000            -35.7881          
200000            -35.7908          
200000            -35.797           
200000            -35.8106          
200000            -35.8401          
200000            -35.9023          
200000            -36.0316          
200000            -36.2922          
199999            -36.7931          
199999            -37.6837          
199999            -39.1004          
199998            -41.0751          
199997            -43.504           
199996            -46.2154          
199995            -49.0461          
199992            -51.8609          
199989            -54.5353          
199984            -56.9388          
199977            -58.9444          
199967            -60.4721          
199952            -61.5313          
199931            -62.2109          
199900            -62.6257          
199855            -62.8729          
199791            -63.019           
199698            -63.1041          
199563            -63.1512          
199369            -63.1727          
199088            -63.1744          
198682            -63.1582          
198095            -63.1223          
197246            -63.0621          
196019            -62.9693          
194246            -62.8307          
191682            -62.6262          
187977            -62.3254          
182622            -61.8817          
174881            -61.2228          
163692            -60.231           
147519            -58.7038          
124142            -56.257           
90352.2           -52.0481          
41510.7           -43.3506          
29086.8           -39.9262          
131131            -57.1281          
278630            -68.6712          
491831            -77.8908          
800000            -85.182           

freq (Hz)         db20(getData("/o" ?resultsDir "/home1/home2/rfvlsi08/simulation/chopper_amplifier_v0.1_tb/spectre/schematic" ?result "pac")) (dB)

harmonic = -1                

100000            -76.6145          
100000            -76.6167          
100000            -76.6202          
100000            -76.6256          
100000            -76.6344          
99999.9           -76.649           
99999.9           -76.6741          
99999.9           -76.7186          
99999.8           -76.7994          
99999.7           -76.9487          
99999.6           -77.2239          
99999.4           -77.7159          
99999.2           -78.5322          
99998.8           -79.7225          
99998.3           -81.1679          
99997.5           -82.5717          
99996.4           -83.6405          
99994.8           -84.282           
99992.4           -84.5921          
99989             -84.7117          
99984.2           -84.7411          
99977.1           -84.7343          
99966.9           -84.716           
99952.1           -84.6963          
99930.8           -84.6783          
99900             -84.6624          
99855.5           -84.6476          
99791.1           -84.6327          
99698             -84.6159          
99563.5           -84.5949          
99369             -84.567           
99088             -84.5283          
98681.7           -84.4734          
98094.5           -84.3947          
97245.8           -84.2809          
96018.9           -84.1156          
94245.6           -83.8744          
91682.4           -83.5206          
87977.4           -82.9975          
82622             -82.2147          
74881.1           -81.0216          
63692.2           -79.1421          
47519.3           -75.9727          
24142.2           -69.4128          
9647.82           -61.2233          
58489.3           -78.1821          
129087            -88.1288          
231131            -96.9557          
378630            -104.966          
591831            -112.292          
900000            -104.155          

freq (Hz)         db20(getData("/o" ?resultsDir "/home1/home2/rfvlsi08/simulation/chopper_amplifier_v0.1_tb/spectre/schematic" ?result "pac")) (dB)

harmonic = 0                 

0.01              92.6664           
0.0144544         92.666            
0.020893          92.6652           
0.0301995         92.6635           
0.0436516         92.66             
0.0630957         92.6526           
0.0912011         92.6372           
0.131826          92.6053           
0.190546          92.5394           
0.275423          92.4047           
0.398107          92.1361           
0.57544           91.6235           
0.831764          90.7152           
1.20226           89.2717           
1.7378            87.2554           
2.51189           84.7611           
3.63078           81.9443           
5.24807           78.9404           
7.58578           75.8374           
10.9648           72.6847           
15.8489           69.5075           
22.9087           66.3184           
33.1131           63.1237           
47.863            59.9262           
69.1831           56.7274           
100               53.528            
144.544           50.3283           
208.93            47.1284           
301.995           43.9284           
436.516           40.7284           
630.957           37.5283           
912.011           34.3281           
1318.26           31.1277           
1905.46           27.9268           
2754.23           24.725            
3981.07           21.5211           
5754.4            18.3131           
8317.64           15.0964           
12022.6           11.8618           
17378             8.59021           
25118.9           5.24441           
36307.8           1.75477           
52480.7           -1.99427          
75857.8           -6.15631          
109648            -10.8628          
158489            -16.1337          
229087            -21.8597          
331131            -27.879           
478630            -34.042           
691831            -40.195           
1e+06             -46.1218          

freq (Hz)         db20(getData("/o" ?resultsDir "/home1/home2/rfvlsi08/simulation/chopper_amplifier_v0.1_tb/spectre/schematic" ?result "pac")) (dB)

harmonic = 1                 

100000            -76.6059          
100000            -76.6043          
100000            -76.6022          
100000            -76.5996          
100000            -76.5968          
100000            -76.5947          
100000            -76.5957          
100000            -76.6054          
100000            -76.6361          
100000            -76.7138          
100000            -76.8879          
100001            -77.2403          
100001            -77.8735          
100001            -78.8472          
100002            -80.0856          
100003            -81.3719          
100004            -82.4763          
100005            -83.2859          
100008            -83.8161          
100011            -84.1415          
100016            -84.3361          
100023            -84.4528          
100033            -84.5244          
100048            -84.5697          
100069            -84.6001          
100100            -84.6219          
100145            -84.6394          
100209            -84.6556          
100302            -84.6731          
100437            -84.6943          
100631            -84.7221          
100912            -84.7605          
101318            -84.8146          
101905            -84.8917          
102754            -85.002           
103981            -85.1598          
105754            -85.3856          
108318            -85.7071          
112023            -86.1625          
117378            -86.8024          
125119            -87.6915          
136308            -88.9089          
152481            -90.5432          
175858            -92.6832          
209648            -95.4001          
258489            -98.727           
329087            -102.642          
431131            -107.064          
578630            -111.867          
791831            -116.907          
1.1e+06           -104.333          

freq (Hz)         db20(getData("/o" ?resultsDir "/home1/home2/rfvlsi08/simulation/chopper_amplifier_v0.1_tb/spectre/schematic" ?result "pac")) (dB)

harmonic = 2                 

200000            -35.7877          
200000            -35.7883          
200000            -35.7895          
200000            -35.7918          
200000            -35.7961          
200000            -35.8047          
200000            -35.8217          
200000            -35.8561          
200000            -35.9255          
200000            -36.0651          
200000            -36.3406          
200001            -36.863           
200001            -37.7847          
200001            -39.2462          
200002            -41.2854          
200003            -43.8066          
200004            -46.6487          
200005            -49.6604          
200008            -52.7144          
200011            -55.6763          
200016            -58.3627          
200023            -60.5423          
200033            -62.0425          
200048            -62.8902          
200069            -63.2812          
200100            -63.424           
200145            -63.4551          
200209            -63.4451          
200302            -63.4258          
200437            -63.4102          
200631            -63.4039          
200912            -63.4093          
201318            -63.4287          
201905            -63.4658          
202754            -63.5256          
203981            -63.6165          
205754            -63.7504          
208318            -63.9448          
212023            -64.2244          
217378            -64.6232          
225119            -65.1874          
236308            -65.9766          
252481            -67.0627          
275858            -68.523           
309648            -70.4278          
358489            -72.8282          
429087            -75.7445          
531131            -79.1565          
678630            -83.0064          
891831            -87.2304          
1.2e+06           -89.4305          

freq (Hz)         db20(getData("/o" ?resultsDir "/home1/home2/rfvlsi08/simulation/chopper_amplifier_v0.1_tb/spectre/schematic" ?result "pac")) (dB)

harmonic = 3                 

300000            -88.95            
300000            -88.9543          
300000            -88.9607          
300000            -88.9705          
300000            -88.9858          
300000            -89.0101          
300000            -89.0497          
300000            -89.1163          
300000            -89.2317          
300000            -89.4364          
300000            -89.8027          
300001            -90.4488          
300001            -91.532           
300001            -93.1852          
300002            -95.3994          
300003            -97.931           
300004            -100.288          
300005            -101.899          
300008            -102.571          
300011            -102.625          
300016            -102.439          
300023            -102.214          
300033            -102.019          
300048            -101.869          
300069            -101.758          
300100            -101.68           
300145            -101.625          
300209            -101.589          
300302            -101.566          
300437            -101.554          
300631            -101.551          
300912            -101.557          
301318            -101.573          
301905            -101.6            
302754            -101.642          
303981            -101.706          
305754            -101.799          
308318            -101.934          
312023            -102.128          
317378            -102.404          
325119            -102.796          
336308            -103.345          
352481            -104.106          
375858            -105.147          
409648            -106.544          
458489            -108.374          
529087            -110.697          
631131            -113.537          
778630            -116.868          
991831            -120.617          
1.3e+06           -104.542          

freq (Hz)         db20(getData("/o" ?resultsDir "/home1/home2/rfvlsi08/simulation/chopper_amplifier_v0.1_tb/spectre/schematic" ?result "pac")) (dB)

harmonic = 4                 

400000            -50.7425          
400000            -50.7432          
400000            -50.7446          
400000            -50.7471          
400000            -50.7517          
400000            -50.7607          
400000            -50.7784          
400000            -50.8137          
400000            -50.8843          
400000            -51.0257          
400000            -51.3035          
400001            -51.8288          
400001            -52.7539          
400001            -54.2184          
400002            -56.2582          
400003            -58.7721          
400004            -61.5863          
400005            -64.5226          
400008            -67.402           
400011            -70.0125          
400016            -72.1134          
400023            -73.5439          
400033            -74.3464          
400048            -74.717           
400069            -74.8538          
400100            -74.8849          
400145            -74.8757          
400209            -74.8557          
400302            -74.8367          
400437            -74.8232          
400631            -74.8166          
400912            -74.8174          
401318            -74.8266          
401905            -74.8456          
402754            -74.8774          
403981            -74.9262          
405754            -74.9987          
408318            -75.1048          
412023            -75.2583          
417378            -75.4795          
425119            -75.796           
436308            -76.2452          
452481            -76.8734          
475858            -77.7328          
509648            -78.8759          
558489            -80.3558          
629087            -82.2228          
731131            -84.5153          
878630            -87.2568          
1.09183e+06       -90.4662          
1.4e+06           -89.9616          

freq (Hz)         db20(getData("/o" ?resultsDir "/home1/home2/rfvlsi08/simulation/chopper_amplifier_v0.1_tb/spectre/schematic" ?result "pac")) (dB)

harmonic = 5                 

500000            -85.5593          
500000            -85.5603          
500000            -85.562           
500000            -85.565           
500000            -85.5704          
500000            -85.5805          
500000            -85.5997          
500000            -85.6372          
500000            -85.7112          
500000            -85.8574          
500000            -86.1423          
500001            -86.6781          
500001            -87.6188          
500001            -89.107           
500002            -91.183           
500003            -93.7533          
500004            -96.6567          
500005            -99.7345          
500008            -102.832          
500011            -105.748          
500016            -108.192          
500023            -109.876          
500033            -110.758          
500048            -111.077          
500069            -111.116          
500100            -111.053          
500145            -110.967          
500209            -110.89           
500302            -110.83           
500437            -110.786          
500631            -110.758          
500912            -110.742          
501318            -110.738          
501905            -110.745          
502754            -110.764          
503981            -110.798          
505754            -110.852          
508318            -110.932          
512023            -111.048          
517378            -111.216          
525119            -111.453          
536308            -111.788          
552481            -112.253          
575858            -112.897          
609648            -113.779          
658489            -114.975          
729087            -116.559          
831131            -118.581          
978630            -121.056          
1.19183e+06       -123.963          
1.5e+06           -104.774          

freq (Hz)         db20(getData("/o" ?resultsDir "/home1/home2/rfvlsi08/simulation/chopper_amplifier_v0.1_tb/spectre/schematic" ?result "pac")) (dB)

harmonic = 6                 

600000            -61.5275          
600000            -61.5254          
600000            -61.5225          
600000            -61.5188          
600000            -61.5146          
600000            -61.5109          
600000            -61.5101          
600000            -61.5187          
600000            -61.551           
600000            -61.6371          
600000            -61.8356          
600001            -62.2472          
600001            -63.0101          
600001            -64.2451          
600002            -65.9633          
600003            -68.0352          
600004            -70.2604          
600005            -72.4512          
600008            -74.4666          
600011            -76.2153          
600016            -77.6543          
600023            -78.7836          
600033            -79.6357          
600048            -80.2598          
600069            -80.7075          
600100            -81.0246          
600145            -81.2476          
600209            -81.404           
600302            -81.5142          
600437            -81.5926          
600631            -81.6498          
600912            -81.6935          
601318            -81.7297          
601905            -81.7632          
602754            -81.7988          
603981            -81.8413          
605754            -81.8966          
608318            -81.9721          
612023            -82.0781          
617378            -82.2291          
625119            -82.4448          
636308            -82.7516          
652481            -83.1828          
675858            -83.7745          
709648            -84.5636          
758489            -85.5906          
829087            -86.9038          
931131            -88.5559          
1.07863e+06       -90.6122          
1.29183e+06       -93.1506          
1.6e+06           -89.9411          

freq (Hz)         db20(getData("/o" ?resultsDir "/home1/home2/rfvlsi08/simulation/chopper_amplifier_v0.1_tb/spectre/schematic" ?result "pac")) (dB)

harmonic = 7                 

700000            -85.7173          
700000            -85.718           
700000            -85.7193          
700000            -85.7215          
700000            -85.7259          
700000            -85.7346          
700000            -85.7517          
700000            -85.7863          
700000            -85.856           
700000            -85.9961          
700000            -86.2724          
700001            -86.7961          
700001            -87.7202          
700001            -89.1861          
700002            -91.2335          
700003            -93.7705          
700004            -96.6442          
700005            -99.7192          
700008            -102.901          
700011            -106.115          
700016            -109.265          
700023            -112.185          
700033            -114.605          
700048            -116.264          
700069            -117.136          
700100            -117.461          
700145            -117.511          
700209            -117.459          
700302            -117.383          
700437            -117.313          
700631            -117.259          
700912            -117.221          
701318            -117.198          
701905            -117.188          
702754            -117.191          
703981            -117.208          
705754            -117.241          
708318            -117.295          
712023            -117.375          
717378            -117.49           
725119            -117.654          
736308            -117.881          
752481            -118.192          
775858            -118.621          
809648            -119.218          
858489            -120.052          
929087            -121.198          
1.03113e+06       -122.713          
1.17863e+06       -124.619          
1.39183e+06       -126.936          
1.7e+06           -104.985          
