
time (s)          getData("/adde    getData("/mixe


0                 20                0                 
1e-05             20.0628           0.0628318         
3e-05             20.1885           0.188495          
7e-05             20.4398           0.439822          
0.00015           20.9425           0.942464          
0.00031           21.9477           1.94766           
0.00063           23.9574           3.95737           
0.00127           27.9712           7.97118           
0.00255           35.9537           15.9537           
0.00378           43.5278           23.5278           
0.00501           50.9614           30.9614           
0.00502           -11.0212          -31.0212          
0.00504           -11.1406          -31.1406          
0.00508           -11.3794          -31.3794          
0.00516           -11.8562          -31.8562          
0.00532           -12.8075          -32.8075          
0.00564           -14.7001          -34.7001          
0.00628           -18.4424          -38.4424          
0.00756           -25.7346          -45.7346          
0.00878           -32.4105          -52.4105          
0.01              -38.7785          -58.7785          
0.01001           78.8293           58.8293           
0.01003           78.9309           58.9309           
0.01007           79.1338           59.1338           
0.01015           79.5384           59.5384           
0.01031           80.3431           60.3431           
0.01063           81.9341           61.9341           
0.01127           85.0403           65.0403           
0.01255           90.9325           70.9325           
0.01378           96.1629           76.1629           
0.01501           100.939           80.9386           
0.01502           -60.9755          -80.9755          
0.01504           -61.0492          -81.0492          
0.01508           -61.1961          -81.1961          
0.01516           -61.4885          -81.4885          
0.01532           -62.0671          -82.0671          
0.01564           -63.1993          -83.1993          
0.01628           -65.3624          -85.3624          
0.01756           -69.2712          -89.2712          
0.01878           -72.4599          -92.4599          
0.02              -75.1057          -95.1057          
0.02001           115.125           95.125            
0.02003           115.164           95.1637           
0.02007           115.241           95.2406           
0.02015           115.393           95.3927           
0.02031           115.689           95.6895           
0.02063           116.254           96.254            
0.02127           117.266           97.2663           
0.02255           118.817           98.8175           
0.02378           119.706           99.7063           
0.02501           120               100               
0.02502           -79.9999          -99.9999          
0.02504           -79.9997          -99.9997          
0.02508           -79.9987          -99.9987          
0.02516           -79.9949          -99.9949          
0.02532           -79.9798          -99.9798          
0.02564           -79.9192          -99.9192          
0.02628           -79.6768          -99.6768          
0.02756           -78.7092          -98.7092          
0.02878           -77.1928          -97.1928          
0.03              -75.1057          -95.1057          
0.03001           115.086           95.0862           
0.03003           115.047           95.0472           
0.03007           114.969           94.9688           
0.03015           114.81            94.8102           
0.03031           114.486           94.4857           
0.03063           113.808           93.8083           
0.03127           112.34            92.3398           
0.03255           108.958           88.9576           
0.03378           105.165           85.1654           
0.03501           100.865           80.8648           
0.03502           -60.8278          -80.8278          
0.03504           -60.7537          -80.7537          
0.03508           -60.6052          -80.6052          
0.03516           -60.3067          -80.3067          
0.03532           -59.7036          -79.7036          
0.03564           -58.4733          -78.4733          
0.03628           -55.918           -75.918           
0.03756           -50.4436          -70.4436          
0.03878           -44.8014          -64.8014          
0.04              -38.7785          -58.7785          
0.04001           78.7277           58.7277           
0.04003           78.6259           58.6259           
0.04007           78.4221           58.4221           
0.04015           78.0134           58.0134           
0.04031           77.1917           57.1917           
0.04063           75.5309           55.5309           
0.04127           72.1427           52.1427           
0.04255           65.1189           45.1189           
0.04378           58.0941           38.0941           
0.04501           50.8419           30.8419           
0.04502           -10.7822          -30.7822          
0.04504           -10.6626          -30.6626          
0.04508           -10.4233          -30.4233          
0.04516           -9.94405          -29.944           
0.04532           -8.98337          -28.9834          
0.04564           -7.05332          -27.0533          
0.04628           -3.16121          -23.1612          
0.04756           4.72901           -15.271           
0.04878           12.342            -7.65798          
0.05              20                -1.22471e-14      
0.05001           19.9372           -0.0628318        
0.05003           19.8115           -0.188495         
0.05007           19.5602           -0.439822         
0.05015           19.0575           -0.942464         
0.05031           18.0523           -1.94766          
0.05063           16.0426           -3.95737          
0.05127           12.0288           -7.97118          
0.05255           4.04634           -15.9537          
0.05378           -3.52778          -23.5278          
0.05501           -10.9614          -30.9614          
0.05502           51.0212           31.0212           
0.05504           51.1406           31.1406           
0.05508           51.3794           31.3794           
0.05516           51.8562           31.8562           
0.05532           52.8075           32.8075           
0.05564           54.7001           34.7001           
0.05628           58.4424           38.4424           
0.05756           65.7346           45.7346           
0.05878           72.4105           52.4105           
0.06              78.7785           58.7785           
0.06001           -38.8293          -58.8293          
0.06003           -38.9309          -58.9309          
0.06007           -39.1338          -59.1338          
0.06015           -39.5384          -59.5384          
0.06031           -40.3431          -60.3431          
0.06063           -41.9341          -61.9341          
0.06127           -45.0403          -65.0403          
0.06255           -50.9325          -70.9325          
0.06378           -56.1629          -76.1629          
0.06501           -60.9386          -80.9386          
0.06502           100.975           80.9755           
0.06504           101.049           81.0492           
0.06508           101.196           81.1961           
0.06516           101.489           81.4885           
0.06532           102.067           82.0671           
0.06564           103.199           83.1993           
0.06628           105.362           85.3624           
0.06756           109.271           89.2712           
0.06878           112.46            92.4599           
0.07              115.106           95.1057           
0.07001           -75.125           -95.125           
0.07003           -75.1637          -95.1637          
0.07007           -75.2406          -95.2406          
0.07015           -75.3927          -95.3927          
0.07031           -75.6895          -95.6895          
0.07063           -76.254           -96.254           
0.07127           -77.2663          -97.2663          
0.07255           -78.8175          -98.8175          
0.07378           -79.7063          -99.7063          
0.07501           -80               -100              
0.07502           120               99.9999           
0.07504           120               99.9997           
0.07508           119.999           99.9987           
0.07516           119.995           99.9949           
0.07532           119.98            99.9798           
0.07564           119.919           99.9192           
0.07628           119.677           99.6768           
0.07756           118.709           98.7092           
0.07878           117.193           97.1928           
0.08              115.106           95.1057           
0.08001           -75.0862          -95.0862          
0.08003           -75.0472          -95.0472          
0.08007           -74.9688          -94.9688          
0.08015           -74.8102          -94.8102          
0.08031           -74.4857          -94.4857          
0.08063           -73.8083          -93.8083          
0.08127           -72.3398          -92.3398          
0.08255           -68.9576          -88.9576          
0.08378           -65.1654          -85.1654          
0.08501           -60.8648          -80.8648          
0.08502           100.828           80.8278           
0.08504           100.754           80.7537           
0.08508           100.605           80.6052           
0.08516           100.307           80.3067           
0.08532           99.7036           79.7036           
0.08564           98.4733           78.4733           
0.08628           95.918            75.918            
0.08756           90.4436           70.4436           
0.08878           84.8014           64.8014           
0.09              78.7785           58.7785           
0.09001           -38.7277          -58.7277          
0.09003           -38.6259          -58.6259          
0.09007           -38.4221          -58.4221          
0.09015           -38.0134          -58.0134          
0.09031           -37.1917          -57.1917          
0.09063           -35.5309          -55.5309          
0.09127           -32.1427          -52.1427          
0.09255           -25.1189          -45.1189          
0.09378           -18.0941          -38.0941          
0.09501           -10.8419          -30.8419          
0.09502           50.7822           30.7822           
0.09504           50.6626           30.6626           
0.09508           50.4233           30.4233           
0.09516           49.944            29.944            
0.09532           48.9834           28.9834           
0.09564           47.0533           27.0533           
0.09628           43.1612           23.1612           
0.09756           35.271            15.271            
0.09878           27.658            7.65798           
0.1               20                1.13312e-13       
