
freq (Hz)         sp(1 1)           sp(1 2)           sp(2 1)           sp(2 2)       


0                 complex(-0.991954, 0)    complex(8.47165e-06, 0)    complex(8.47165e-06, 0)    complex(-0.994279, 0)    
1e+09             complex(-0.991518, 0.00828807)    complex(6.19054e-06, 1.08442e-05)    complex(6.19054e-06, 1.08442e-05)    complex(-0.993818, 0.00866142)    
2e+09             complex(-0.991064, 0.0157524)    complex(8.20518e-06, 1.62475e-05)    complex(8.20518e-06, 1.62475e-05)    complex(-0.993173, 0.0165058)    
3e+09             complex(-0.990739, 0.0233394)    complex(8.86202e-06, 2.24246e-05)    complex(8.86202e-06, 2.24246e-05)    complex(-0.992734, 0.0241011)    
4e+09             complex(-0.990399, 0.0309382)    complex(9.43725e-06, 2.89607e-05)    complex(9.43725e-06, 2.89607e-05)    complex(-0.992298, 0.0318788)    
5e+09             complex(-0.989998, 0.0385463)    complex(1.01346e-05, 3.56222e-05)    complex(1.01346e-05, 3.56222e-05)    complex(-0.991803, 0.0396644)    
6e+09             complex(-0.989523, 0.0461572)    complex(1.09901e-05, 4.23332e-05)    complex(1.09901e-05, 4.23332e-05)    complex(-0.991228, 0.0474528)    
7e+09             complex(-0.988968, 0.0537666)    complex(1.20066e-05, 4.90472e-05)    complex(1.20066e-05, 4.90472e-05)    complex(-0.990565, 0.0552394)    
8e+09             complex(-0.988327, 0.0613713)    complex(1.31836e-05, 5.57384e-05)    complex(1.31836e-05, 5.57384e-05)    complex(-0.989831, 0.0628414)    
9e+09             complex(-0.9876, 0.0689692)    complex(1.44993e-05, 6.24223e-05)    complex(1.44993e-05, 6.24223e-05)    complex(-0.989002, 0.0706152)    
1e+10             complex(-0.986783, 0.0765578)    complex(1.5957e-05, 6.90768e-05)    complex(1.5957e-05, 6.90768e-05)    complex(-0.988099, 0.0782015)    
