
vg                getData("M0:gm" ?resultsDir "/home1/home2/rfvlsi08/simulation/small_signal_extraction/spectre/schematic" ?result "dcOpInfo") / ((- getData("M0:cbd" ?resultsDir "/home1/home2/rfvlsi08/simulation/small_signal_extraction/spectre/schematic" ?result "dcOpInfo")) + getData("M0:cjd" ?resultsDir "/home1/home2/rfvlsi08/simulation/small_signal_extraction/spectre/schematic" ?result "dcOpInfo") + (- getData("M0:cgd" ?resultsDir "/home1/home2/rfvlsi08/simulation/small_signal_extraction/spectre/schematic" ?result "dcOpInfo")))

    0                 5.1462e3      
  100e-3             90.1355e3      
  200e-3              1.5643e6      
  300e-3             26.1732e6      
  400e-3            384.698e6       
  500e-3              4.1160e9      
  600e-3             23.4864e9      
  700e-3             52.9829e9      
  800e-3             70.8969e9      
  900e-3             81.3211e9      
    1                89.0372e9      
    1.1              95.1961e9      
    1.2             100.108e9       
    1.3             103.994e9       
    1.4             107.061e9       
    1.5             109.48e9        
    1.6             111.387e9       
    1.7             112.89e9        
    1.8             114.068e9       
    1.9             114.984e9       
    2               115.686e9       
    2.1             116.212e9       
    2.2             116.591e9       
    2.3             116.847e9       
    2.4             116.999e9       
    2.5             117.061e9       
    2.6             117.046e9       
    2.7             116.963e9       
    2.8             116.822e9       
    2.9             116.629e9       
    3               116.39e9        
    3.1             116.109e9       
    3.2             115.792e9       
    3.3             115.44e9        
