
Cadence (R) Virtuoso (R) Spectre (R) Circuit Simulator
Version 12.1.0.368.isr4 64bit -- 23 Jan 2013
Copyright (C) 1989-2013 Cadence Design Systems, Inc. All rights reserved worldwide. Cadence, Virtuoso and Spectre are registered trademarks of Cadence Design Systems, Inc. All others are the property of their respective holders.

Protected by U.S. Patents: 
        5,610,847; 5,790,436; 5,812,431; 5,859,785; 5,949,992; 5,987,238; 
        6,088,523; 6,101,323; 6,151,698; 6,181,754; 6,260,176; 6,278,964; 
        6,349,272; 6,374,390; 6,493,849; 6,504,885; 6,618,837; 6,636,839; 
        6,778,025; 6,832,358; 6,851,097; 6,928,626; 7,024,652; 7,035,782; 
        7,085,700; 7,143,021; 7,493,240; 7,571,401.

Includes RSA BSAFE(R) Cryptographic or Security Protocol Software from RSA Security, Inc.

User: rfvlsi08   Host: w55.rfvlsi.org   HostID: A8C03700   PID: 26593
Memory  available: 22.4870 GB  physical: 67.5240 GB
CPU Type: Intel(R) Core(TM) i7-3930K CPU @ 3.20GHz
          Processor PhysicalID CoreID Frequency
              0         0        0     3201.0
              1         0        1     3201.0
              2         0        2     3201.0
              3         0        3     3201.0
              4         0        4     3201.0
              5         0        5     3201.0


Simulating `input.scs' on w55.rfvlsi.org at 4:51:58 PM, Wed Mar 23, 2016 (process id: 26593).
Current working directory: /home1/home2/rfvlsi08/OceanRepo/moscap/netlist.
Command line:
    /usr/cad/cadence/MMSIM/cur/tools.lnx86/spectre/bin/64bit/spectre  \
        input.scs +escchars +log ../result/psf/spectre.out +inter=mpsc  \
        +mpssession=spectre6_20405_7 -raw ../result/psf +lqtimeout 900  \
        -maxw 5 -maxn 5
spectre pid = 26593

Loading /usr/cad/cadence/MMSIM/cur/tools.lnx86/cmi/lib/64bit/5.0/libinfineon_sh.so ...
Loading /usr/cad/cadence/MMSIM/cur/tools.lnx86/cmi/lib/64bit/5.0/libphilips_o_sh.so ...
Loading /usr/cad/cadence/MMSIM/cur/tools.lnx86/cmi/lib/64bit/5.0/libphilips_sh.so ...
Loading /usr/cad/cadence/MMSIM/cur/tools.lnx86/cmi/lib/64bit/5.0/libsparam_sh.so ...
Loading /usr/cad/cadence/MMSIM/cur/tools.lnx86/cmi/lib/64bit/5.0/libstmodels_sh.so ...
Reading file:  /home1/home2/rfvlsi08/OceanRepo/moscap/netlist/input.scs
Reading file:  /home/PDKs/TSMC35/PDK/T035MMSP002K1/models/Spectre/mm0355v.scs
Reading file:  /home/PDKs/TSMC35/PDK/T035MMSP002K1/models/Spectre/res_va.va
Reading link:  /usr/cad/cadence/MMSIM/cur/tools.lnx86/spectre/etc/ahdl/discipline.h
Reading link:  /usr/cad/cadence/MMSIM/cur
Reading file:  /usr/cad/cadence/MMSIM/MMSIM_12.10.368/tools.lnx86/spectre/etc/ahdl/disciplines.vams
Reading link:  /usr/cad/cadence/MMSIM/cur/tools.lnx86/spectre/etc/ahdl/constants.h
Reading file:  /usr/cad/cadence/MMSIM/MMSIM_12.10.368/tools.lnx86/spectre/etc/ahdl/constants.vams

Time for NDB Parsing: CPU = 80.986 ms, elapsed = 259.691 ms.
Time accumulated: CPU = 80.986 ms, elapsed = 259.691 ms.
Peak resident memory used = 41.3 Mbytes.


Time for Elaboration: CPU = 16.998 ms, elapsed = 21.836 ms.
Time accumulated: CPU = 98.984 ms, elapsed = 281.872 ms.
Peak resident memory used = 46 Mbytes.


Time for EDB Visiting: CPU = 0 s, elapsed = 343.084 us.
Time accumulated: CPU = 99.984 ms, elapsed = 283.3 ms.
Peak resident memory used = 46.2 Mbytes.


Circuit inventory:
              nodes 2
            bsim3v3 1     
           resistor 1     
            vsource 1     


Time for parsing: CPU = 1.999 ms, elapsed = 2.79903 ms.
Time accumulated: CPU = 101.983 ms, elapsed = 286.483 ms.
Peak resident memory used = 46.9 Mbytes.

Entering remote command mode using MPSC service (spectre, ipi, v0.0, spectre6_20405_7, ).

******************
DC Analysis `dcOp'
******************
Important parameter values:
    reltol = 1e-03
    abstol(V) = 1 uV
    abstol(I) = 1 pA
    temp = 27 C
    tnom = 27 C
    tempeffects = all
    gmindc = 1 pS
Convergence achieved in 2 iterations.
Total time required for dc analysis `dcOp': CPU = 2 ms, elapsed = 3.75891 ms.
Time accumulated: CPU = 103.983 ms, elapsed = 1.36373 s.
Peak resident memory used = 47.7 Mbytes.

dcOpInfo: writing operating point information to rawfile.
modelParameter: writing model parameter values to rawfile.
element: writing instance parameter values to rawfile.
outputParameter: writing output parameter values to rawfile.
designParamVals: writing netlist parameters to rawfile.
primitives: writing primitives to rawfile.
subckts: writing subcircuits to rawfile.
Spectre received SIGTERM.

Error found by spectre.
    ERROR (SPECTRE-25): 
        Killed by user.
